{
    "KPackageStructure": "Plasma/Applet",
    "KPlugin": {
        "Authors": [
            {
                "Email": "mart@kde.org",
                "Name": "Marco Martin",
                "Name[ar]": "ماركو مارتن",
                "Name[ast]": "Marco Martin",
                "Name[az]": "Marco Martin",
                "Name[be]": "Marco Martin",
                "Name[bg]": "Marco Martin",
                "Name[ca@valencia]": "Marco Martin",
                "Name[ca]": "Marco Martin",
                "Name[cs]": "Marco Martin",
                "Name[de]": "Marco Martin",
                "Name[en_GB]": "Marco Martin",
                "Name[eo]": "Marco Martin",
                "Name[es]": "Marco Martin",
                "Name[eu]": "Marco Martin",
                "Name[fi]": "Marco Martin",
                "Name[fr]": "Marco Martin",
                "Name[gl]": "Marco Martin",
                "Name[he]": "מרקו מרטין",
                "Name[ia]": "Marco Martin",
                "Name[id]": "Marco Martin",
                "Name[it]": "Marco Martin",
                "Name[ka]": "Marco Martin",
                "Name[ko]": "Marco Martin",
                "Name[nl]": "Marco Martin",
                "Name[nn]": "Marco Martin",
                "Name[pl]": "Marco Martin",
                "Name[pt]": "Marco Martin",
                "Name[pt_BR]": "Marco Martin",
                "Name[ru]": "Marco Martin",
                "Name[sa]": "मार्को मार्टिन्",
                "Name[sk]": "Marco Martin",
                "Name[sl]": "Marco Martin",
                "Name[sv]": "Marco Martin",
                "Name[ta]": "மார்க்கோ மார்ட்டின்",
                "Name[tr]": "Marco Martin",
                "Name[uk]": "Marco Martin",
                "Name[vi]": "Marco Martin",
                "Name[x-test]": "xxMarco Martinxx",
                "Name[zh_CN]": "Marco Martin"
            }
        ],
        "Category": "Miscellaneous",
        "Description": "Example on how to manage Drop data",
        "Description[az]": "Daşınan elementlərlə işləmə nümunəsi",
        "Description[be]": "Прыклад таго, як кіраваць перацягваннем даных",
        "Description[bg]": "Пример за управление на пуснати данни",
        "Description[ca@valencia]": "Exemple de com gestionar dades «Drop»",
        "Description[ca]": "Exemple de com gestionar dades «Drop»",
        "Description[en_GB]": "Example on how to manage Drop data",
        "Description[eo]": "Ekzemplo pri kiel administri Drop-datumojn",
        "Description[es]": "Ejemplo sobre cómo manejar datos soltados",
        "Description[eu]": "Adibidea jaregindako datuak kudeatzeko moduari buruz",
        "Description[fi]": "Esimerkki pudotetun tiedon käsittelystä",
        "Description[fr]": "Exemple sur comment gérer les données fournies",
        "Description[gl]": "Exemplo de como xestionar os datos soltados.",
        "Description[he]": "דוגמה לאיך לנהל נתונים שנגררו",
        "Description[ia]": "Exemplo de como gerer Drop data (deponer datos)",
        "Description[id]": "Example on how to manage Drop data",
        "Description[it]": "Esempio su come gestire i dati Drop",
        "Description[ka]": "მაგალითი, როგორ მართოთ შემოთრეული მონაცემები",
        "Description[ko]": "드롭 데이터를 관리하는 방법 시연",
        "Description[nl]": "Voorbeeld van hoe gegevens van Drop te beheren",
        "Description[nn]": "Eksempel på korleis handtera «Drop»-data",
        "Description[pl]": "Przykład postępowania z upuszczanymi danymi",
        "Description[pt]": "Exemplo de gestão dos dados do Drop",
        "Description[pt_BR]": "Exemplo de como gerenciar os dados do Drop",
        "Description[ru]": "Пример обработки перетаскиваемых объектов",
        "Description[sa]": "ह्रास दत्तांश कथं प्रबन्धयितव्यम् इति उदाहरणम्",
        "Description[sk]": "Príklad, ako spravovať vypustenie dát",
        "Description[sl]": "Primer kako obravnavati opustitev podatkov",
        "Description[sv]": "Exempel på hur Släpp data hanteras",
        "Description[tr]": "Bırakma verisinin nice yönetileceği üzerine örnek",
        "Description[uk]": "Приклад керування скинутими даними",
        "Description[vi]": "Ví dụ về cách quản lí dữ liệu thả",
        "Description[x-test]": "xxExample on how to manage Drop dataxx",
        "Description[zh_CN]": "展示如何管理拖放数据的示例程序",
        "Icon": "org.kde.plasma.notes",
        "Id": "org.kde.example.notes",
        "License": "GPL",
        "Name": "Example notes",
        "Name[az]": "Nümunə qeydlər",
        "Name[be]": "Прыклады нататак",
        "Name[bg]": "Примерни бележки",
        "Name[ca@valencia]": "Notes d'exemple",
        "Name[ca]": "Notes d'exemple",
        "Name[en_GB]": "Example notes",
        "Name[eo]": "Ekzemplaj notoj",
        "Name[es]": "Notas de ejemplo",
        "Name[eu]": "Adibide-oharrak",
        "Name[fi]": "Esimerkkimuistiinpanot",
        "Name[fr]": "Exemple de notes",
        "Name[gl]": "Notas de exemplo",
        "Name[he]": "הערות לדוגמה",
        "Name[ia]": "Notas de exemplo",
        "Name[id]": "Contoh catatan",
        "Name[it]": "Note di esempio",
        "Name[ka]": "შენიშვნის მაგალითები",
        "Name[ko]": "예제 노트",
        "Name[nl]": "Voorbeeldnotities",
        "Name[nn]": "Eksempelnotat",
        "Name[pl]": "Uwagi do przykładu",
        "Name[pt]": "Notas de exemplo",
        "Name[pt_BR]": "Notas de exemplo",
        "Name[ru]": "Пример заметок",
        "Name[sa]": "उदाहरणानि टिप्पण्यानि",
        "Name[sk]": "Ukážkové poznámky",
        "Name[sl]": "Zabeležke primera",
        "Name[sv]": "Exempelanteckningar",
        "Name[ta]": "எடுத்துக்காட்டு குறிப்புகள்",
        "Name[tr]": "Örnek notlar",
        "Name[uk]": "Нотатки щодо прикладу",
        "Name[vi]": "Ghi chú ví dụ",
        "Name[x-test]": "xxExample notesxx",
        "Name[zh_CN]": "示例便笺",
        "Version": "",
        "Website": ""
    },
    "Keywords": "",
    "X-KDE-ParentApp": "",
    "X-Plasma-DropMimeTypes": [
        "text/plain"
    ],
    "X-Plasma-MainScript": "ui/main.qml"
}
